NAME: data1201.vrp
COMMENT:
TYPE: vrptw
COORDINATES: cartesian
NB_DEPOTS: 1
NB_CLIENTS: 100
MAX_QUANTITY: 1000

DATA_DEPOTS [idName x y readyTime dueTime]:
d1 40 50 0 960

DATA_CLIENTS [idName x y readyTime dueTime demand service]:
c1 25 85 673 793 20 10
c2 22 75 152 272 30 10
c3 22 85 471 591 10 10
c4 20 80 644 764 40 10
c5 20 85 73 193 20 10
c6 18 75 388 508 20 10
c7 15 75 300 420 20 10
c8 15 80 367 487 10 10
c9 10 35 371 491 20 10
c10 10 40 519 639 30 10
c11 8 40 195 315 40 10
c12 8 45 223 343 20 10
c13 5 35 653 773 10 10
c14 5 45 35 155 10 10
c15 2 40 174 294 20 10
c16 0 40 255 375 20 10
c17 0 45 703 823 20 10
c18 44 5 335 455 20 10
c19 42 10 254 374 40 10
c20 42 15 537 657 10 10
c21 40 5 215 335 10 10
c22 40 15 375 495 40 10
c23 38 5 201 321 30 10
c24 38 15 681 801 10 10
c25 35 5 784 904 20 10
c26 95 30 529 649 30 10
c27 95 35 146 266 20 10
c28 92 30 149 269 10 10
c29 90 35 194 314 10 10
c30 88 30 246 366 10 10
c31 88 35 165 285 20 10
c32 87 30 621 741 10 10
c33 85 25 80 200 10 10
c34 85 35 487 607 30 10
c35 67 85 657 777 20 10
c36 65 85 43 163 40 10
c37 65 82 557 677 10 10
c38 62 80 278 398 30 10
c39 60 80 64 184 10 10
c40 60 85 329 449 30 10
c41 58 75 376 496 20 10
c42 55 80 33 153 10 10
c43 55 85 574 694 20 10
c44 55 82 217 337 10 10
c45 20 82 37 157 10 10
c46 18 80 489 609 10 10
c47 2 45 105 225 10 10
c48 42 5 732 852 10 10
c49 42 12 440 560 10 10
c50 72 35 507 627 30 10
c51 55 20 326 446 19 10
c52 25 30 175 295 3 10
c53 20 50 375 495 5 10
c54 55 60 601 721 16 10
c55 30 60 599 719 16 10
c56 50 35 557 677 19 10
c57 30 25 397 517 23 10
c58 15 10 782 902 20 10
c59 10 20 42 162 19 10
c60 15 60 694 814 17 10
c61 45 65 258 378 9 10
c62 65 35 167 287 3 10
c63 65 20 39 159 6 10
c64 45 30 191 311 17 10
c65 35 40 11 131 16 10
c66 41 37 566 686 16 10
c67 64 42 268 388 9 10
c68 40 60 612 732 21 10
c69 31 52 157 277 27 10
c70 35 69 810 930 23 10
c71 65 55 241 361 14 10
c72 63 65 60 180 8 10
c73 2 60 286 406 5 10
c74 20 20 645 765 8 10
c75 5 5 232 352 16 10
c76 60 12 268 388 31 10
c77 23 3 764 884 7 10
c78 8 56 365 485 27 10
c79 6 68 352 472 30 10
c80 47 47 822 942 13 10
c81 49 58 355 475 10 10
c82 27 43 152 272 9 10
c83 37 31 105 225 14 10
c84 57 29 395 515 18 10
c85 63 23 344 464 2 10
c86 21 24 349 469 28 10
c87 12 24 359 479 13 10
c88 24 58 260 380 19 10
c89 67 5 713 833 25 10
c90 37 47 359 479 6 10
c91 49 42 719 839 13 10
c92 53 43 14 134 14 10
c93 61 52 808 928 3 10
c94 57 48 392 512 23 10
c95 56 37 100 220 6 10
c96 55 54 562 682 26 10
c97 4 18 547 667 35 10
c98 26 52 172 292 9 10
c99 26 35 308 428 15 10
c100 31 67 810 930 3 10