NAME: data202.vrp
COMMENT:
TYPE: vrptw
COORDINATES: cartesian
NB_DEPOTS: 1
NB_CLIENTS: 100
MAX_QUANTITY: 1000

DATA_DEPOTS [idName x y readyTime dueTime]:
d1 35 35 0 1000

DATA_CLIENTS [idName x y readyTime dueTime demand service]:
c1 41 49 0 974 10 10
c2 35 17 0 972 7 10
c3 55 45 0 967 13 10
c4 55 20 678 801 19 10
c5 15 30 0 969 26 10
c6 25 30 415 514 3 10
c7 20 50 0 968 5 10
c8 10 43 404 481 9 10
c9 55 60 400 497 16 10
c10 30 60 577 632 16 10
c11 20 65 206 325 12 10
c12 50 35 0 975 19 10
c13 30 25 690 827 23 10
c14 15 10 32 243 20 10
c15 30 5 175 300 8 10
c16 10 20 272 373 19 10
c17 5 30 733 870 2 10
c18 20 40 377 434 12 10
c19 15 60 269 378 17 10
c20 45 65 581 666 9 10
c21 45 20 0 971 11 10
c22 45 10 409 494 18 10
c23 55 5 206 325 29 10
c24 65 35 704 847 3 10
c25 65 20 817 956 6 10
c26 45 30 0 978 17 10
c27 35 40 104 255 16 10
c28 41 37 114 255 16 10
c29 64 42 190 313 9 10
c30 40 60 259 354 21 10
c31 31 52 0 972 27 10
c32 35 69 660 777 23 10
c33 53 52 45 200 11 10
c34 65 55 0 953 14 10
c35 63 65 686 813 8 10
c36 2 60 41 208 5 10
c37 20 20 0 968 8 10
c38 5 5 302 405 16 10
c39 60 12 33 224 31 10
c40 40 25 360 437 9 10
c41 42 7 396 511 5 10
c42 24 12 25 172 5 10
c43 23 3 620 705 7 10
c44 11 14 233 340 18 10
c45 6 38 29 189 16 10
c46 2 48 515 628 1 10
c47 8 56 85 250 27 10
c48 13 52 0 962 36 10
c49 6 68 501 540 30 10
c50 47 47 0 973 13 10
c51 49 58 348 453 10 10
c52 27 43 0 978 9 10
c53 37 31 414 489 14 10
c54 57 29 641 734 18 10
c55 63 23 620 739 2 10
c56 53 12 585 692 6 10
c57 32 12 421 530 7 10
c58 36 26 849 980 18 10
c59 21 24 0 972 28 10
c60 17 34 721 862 3 10
c61 12 24 290 377 13 10
c62 24 58 163 302 19 10
c63 27 69 34 191 10 10
c64 15 77 214 333 9 10
c65 62 77 49 188 20 10
c66 49 73 592 693 25 10
c67 67 5 294 401 25 10
c68 56 39 637 752 36 10
c69 37 47 162 293 6 10
c70 37 56 788 968 5 10
c71 57 68 268 367 15 10
c72 47 16 0 967 25 10
c73 44 17 308 399 9 10
c74 46 13 681 802 8 10
c75 49 11 0 962 18 10
c76 49 42 290 373 13 10
c77 53 43 817 952 14 10
c78 61 52 384 499 3 10
c79 57 48 388 465 23 10
c80 56 37 839 968 6 10
c81 55 54 411 456 26 10
c82 15 47 0 966 16 10
c83 14 37 0 968 11 10
c84 11 31 436 511 7 10
c85 16 22 0 966 41 10
c86 4 18 388 465 35 10
c87 28 18 420 447 26 10
c88 26 52 279 388 9 10
c89 26 35 755 920 15 10
c90 31 67 392 487 3 10
c91 15 19 0 964 1 10
c92 22 22 18 181 2 10
c93 18 24 811 969 22 10
c94 26 27 0 977 27 10
c95 25 24 0 975 20 10
c96 22 27 0 974 11 10
c97 25 21 612 673 12 10
c98 19 21 0 968 10 10
c99 20 26 333 432 9 10
c100 18 18 798 965 17 10